%YAML 1.1
%TAG !u! tag:unity3d.com,2011:
--- !u!1 &1253733667086533703
GameObject:
  m_ObjectHideFlags: 0
  m_CorrespondingSourceObject: {fileID: 0}
  m_PrefabInstance: {fileID: 0}
  m_PrefabAsset: {fileID: 0}
  serializedVersion: 6
  m_Component:
  - component: {fileID: 792989203803633353}
  - component: {fileID: 2010978921165871018}
  m_Layer: 31
  m_Name: GroundPalette
  m_TagString: Untagged
  m_Icon: {fileID: 0}
  m_NavMeshLayer: 0
  m_StaticEditorFlags: 0
  m_IsActive: 1
--- !u!4 &792989203803633353
Transform:
  m_ObjectHideFlags: 0
  m_CorrespondingSourceObject: {fileID: 0}
  m_PrefabInstance: {fileID: 0}
  m_PrefabAsset: {fileID: 0}
  m_GameObject: {fileID: 1253733667086533703}
  m_LocalRotation: {x: 0, y: 0, z: 0, w: 1}
  m_LocalPosition: {x: 0, y: 0, z: 0}
  m_LocalScale: {x: 1, y: 1, z: 1}
  m_Children:
  - {fileID: 1091033059671865344}
  m_Father: {fileID: 0}
  m_RootOrder: 0
  m_LocalEulerAnglesHint: {x: 0, y: 0, z: 0}
--- !u!156049354 &2010978921165871018
Grid:
  m_ObjectHideFlags: 0
  m_CorrespondingSourceObject: {fileID: 0}
  m_PrefabInstance: {fileID: 0}
  m_PrefabAsset: {fileID: 0}
  m_GameObject: {fileID: 1253733667086533703}
  m_Enabled: 1
  m_CellSize: {x: 0.5, y: 0.5, z: 0}
  m_CellGap: {x: 0, y: 0, z: 0}
  m_CellLayout: 0
  m_CellSwizzle: 0
--- !u!1 &1727214704354507159
GameObject:
  m_ObjectHideFlags: 0
  m_CorrespondingSourceObject: {fileID: 0}
  m_PrefabInstance: {fileID: 0}
  m_PrefabAsset: {fileID: 0}
  serializedVersion: 6
  m_Component:
  - component: {fileID: 1091033059671865344}
  - component: {fileID: 5925541758083331588}
  - component: {fileID: 2756393929256629148}
  m_Layer: 31
  m_Name: Layer1
  m_TagString: Untagged
  m_Icon: {fileID: 0}
  m_NavMeshLayer: 0
  m_StaticEditorFlags: 0
  m_IsActive: 1
--- !u!4 &1091033059671865344
Transform:
  m_ObjectHideFlags: 0
  m_CorrespondingSourceObject: {fileID: 0}
  m_PrefabInstance: {fileID: 0}
  m_PrefabAsset: {fileID: 0}
  m_GameObject: {fileID: 1727214704354507159}
  m_LocalRotation: {x: -0, y: -0, z: -0, w: 1}
  m_LocalPosition: {x: 0, y: 0, z: 0}
  m_LocalScale: {x: 1, y: 1, z: 1}
  m_Children: []
  m_Father: {fileID: 792989203803633353}
  m_RootOrder: 0
  m_LocalEulerAnglesHint: {x: 0, y: 0, z: 0}
--- !u!1839735485 &5925541758083331588
Tilemap:
  m_ObjectHideFlags: 0
  m_CorrespondingSourceObject: {fileID: 0}
  m_PrefabInstance: {fileID: 0}
  m_PrefabAsset: {fileID: 0}
  m_GameObject: {fileID: 1727214704354507159}
  m_Enabled: 1
  m_Tiles:
  - first: {x: -2, y: -3, z: 0}
    second:
      m_TileIndex: 7
      m_TileSpriteIndex: 8
      m_TileMatrixIndex: 0
      m_TileColorIndex: 0
      m_ObjectToInstantiate: {fileID: 0}
      m_TileFlags: 1
      m_ColliderType: 1
  - first: {x: 0, y: -3, z: 0}
    second:
      m_TileIndex: 1
      m_TileSpriteIndex: 1
      m_TileMatrixIndex: 0
      m_TileColorIndex: 0
      m_ObjectToInstantiate: {fileID: 0}
      m_TileFlags: 1
      m_ColliderType: 1
  - first: {x: 1, y: -3, z: 0}
    second:
      m_TileIndex: 0
      m_TileSpriteIndex: 0
      m_TileMatrixIndex: 0
      m_TileColorIndex: 0
      m_ObjectToInstantiate: {fileID: 0}
      m_TileFlags: 1
      m_ColliderType: 1
  - first: {x: 2, y: -3, z: 0}
    second:
      m_TileIndex: 2
      m_TileSpriteIndex: 2
      m_TileMatrixIndex: 0
      m_TileColorIndex: 0
      m_ObjectToInstantiate: {fileID: 0}
      m_TileFlags: 1
      m_ColliderType: 1
  - first: {x: -2, y: -2, z: 0}
    second:
      m_TileIndex: 10
      m_TileSpriteIndex: 10
      m_TileMatrixIndex: 0
      m_TileColorIndex: 0
      m_ObjectToInstantiate: {fileID: 0}
      m_TileFlags: 1
      m_ColliderType: 1
  - first: {x: 0, y: -2, z: 0}
    second:
      m_TileIndex: 4
      m_TileSpriteIndex: 15
      m_TileMatrixIndex: 0
      m_TileColorIndex: 0
      m_ObjectToInstantiate: {fileID: 0}
      m_TileFlags: 1
      m_ColliderType: 1
  - first: {x: 1, y: -2, z: 0}
    second:
      m_TileIndex: 3
      m_TileSpriteIndex: 5
      m_TileMatrixIndex: 0
      m_TileColorIndex: 0
      m_ObjectToInstantiate: {fileID: 0}
      m_TileFlags: 1
      m_ColliderType: 1
  - first: {x: 2, y: -2, z: 0}
    second:
      m_TileIndex: 5
      m_TileSpriteIndex: 14
      m_TileMatrixIndex: 0
      m_TileColorIndex: 0
      m_ObjectToInstantiate: {fileID: 0}
      m_TileFlags: 1
      m_ColliderType: 1
  - first: {x: -2, y: -1, z: 0}
    second:
      m_TileIndex: 12
      m_TileSpriteIndex: 6
      m_TileMatrixIndex: 0
      m_TileColorIndex: 0
      m_ObjectToInstantiate: {fileID: 0}
      m_TileFlags: 1
      m_ColliderType: 1
  - first: {x: 0, y: -1, z: 0}
    second:
      m_TileIndex: 14
      m_TileSpriteIndex: 3
      m_TileMatrixIndex: 0
      m_TileColorIndex: 0
      m_ObjectToInstantiate: {fileID: 0}
      m_TileFlags: 1
      m_ColliderType: 1
  - first: {x: 1, y: -1, z: 0}
    second:
      m_TileIndex: 13
      m_TileSpriteIndex: 12
      m_TileMatrixIndex: 0
      m_TileColorIndex: 0
      m_ObjectToInstantiate: {fileID: 0}
      m_TileFlags: 1
      m_ColliderType: 1
  - first: {x: 2, y: -1, z: 0}
    second:
      m_TileIndex: 15
      m_TileSpriteIndex: 4
      m_TileMatrixIndex: 0
      m_TileColorIndex: 0
      m_ObjectToInstantiate: {fileID: 0}
      m_TileFlags: 1
      m_ColliderType: 1
  - first: {x: -2, y: 1, z: 0}
    second:
      m_TileIndex: 6
      m_TileSpriteIndex: 13
      m_TileMatrixIndex: 0
      m_TileColorIndex: 0
      m_ObjectToInstantiate: {fileID: 0}
      m_TileFlags: 1
      m_ColliderType: 1
  - first: {x: 0, y: 1, z: 0}
    second:
      m_TileIndex: 9
      m_TileSpriteIndex: 7
      m_TileMatrixIndex: 0
      m_TileColorIndex: 0
      m_ObjectToInstantiate: {fileID: 0}
      m_TileFlags: 1
      m_ColliderType: 1
  - first: {x: 1, y: 1, z: 0}
    second:
      m_TileIndex: 8
      m_TileSpriteIndex: 9
      m_TileMatrixIndex: 0
      m_TileColorIndex: 0
      m_ObjectToInstantiate: {fileID: 0}
      m_TileFlags: 1
      m_ColliderType: 1
  - first: {x: 2, y: 1, z: 0}
    second:
      m_TileIndex: 11
      m_TileSpriteIndex: 11
      m_TileMatrixIndex: 0
      m_TileColorIndex: 0
      m_ObjectToInstantiate: {fileID: 0}
      m_TileFlags: 1
      m_ColliderType: 1
  m_AnimatedTiles: {}
  m_TileAssetArray:
  - m_RefCount: 1
    m_Data: {fileID: 11400000, guid: cbce95465163d154eb4413674dcb746c, type: 2}
  - m_RefCount: 1
    m_Data: {fileID: 11400000, guid: 1292068ffbe967e498c5546e7ebd3b5e, type: 2}
  - m_RefCount: 1
    m_Data: {fileID: 11400000, guid: 30a4f739a01ac3c429f2b2b09e1d10c2, type: 2}
  - m_RefCount: 1
    m_Data: {fileID: 11400000, guid: a28619bca01fca1488e9d361924311e5, type: 2}
  - m_RefCount: 1
    m_Data: {fileID: 11400000, guid: 2f7a99da78a2682458c05f6a60e6dcbf, type: 2}
  - m_RefCount: 1
    m_Data: {fileID: 11400000, guid: 37faa9c0f8999c14692ccafb59eb7771, type: 2}
  - m_RefCount: 1
    m_Data: {fileID: 11400000, guid: 34a26cd9c2a17d5419ee834f0d9a30bb, type: 2}
  - m_RefCount: 1
    m_Data: {fileID: 11400000, guid: 941b6fec15f011a4b8862a0441f456a4, type: 2}
  - m_RefCount: 1
    m_Data: {fileID: 11400000, guid: fca9607b7098cb048b58ae9cdaaee470, type: 2}
  - m_RefCount: 1
    m_Data: {fileID: 11400000, guid: b8a47e2f0d0367b49ad30b787369262e, type: 2}
  - m_RefCount: 1
    m_Data: {fileID: 11400000, guid: 074f1b91950818b40b10c630303a8aed, type: 2}
  - m_RefCount: 1
    m_Data: {fileID: 11400000, guid: 074c30b9c935c864fa2d783a3d060f46, type: 2}
  - m_RefCount: 1
    m_Data: {fileID: 11400000, guid: 4dc72b8ab27079d45bd33816303c9d11, type: 2}
  - m_RefCount: 1
    m_Data: {fileID: 11400000, guid: 223619e8ca8817f45ab8b78553a0d042, type: 2}
  - m_RefCount: 1
    m_Data: {fileID: 11400000, guid: 4d843f23b86112a4b8ee42c35f463fec, type: 2}
  - m_RefCount: 1
    m_Data: {fileID: 11400000, guid: 38bc5fffdaebece43b7aa3d5325120fb, type: 2}
  m_TileSpriteArray:
  - m_RefCount: 1
    m_Data: {fileID: 21300000, guid: 457ae76b9f05cf24ba2263e8c852d601, type: 3}
  - m_RefCount: 1
    m_Data: {fileID: 21300000, guid: 2ad475106cfe5b549bca468e17b8f538, type: 3}
  - m_RefCount: 1
    m_Data: {fileID: 21300000, guid: 5141eae33200a344c9a4319cf1062782, type: 3}
  - m_RefCount: 1
    m_Data: {fileID: 21300000, guid: 41945d4de9ab3c14eabbcc2acbe98813, type: 3}
  - m_RefCount: 1
    m_Data: {fileID: 21300000, guid: 3228b780b012f724782a3426d4544f0f, type: 3}
  - m_RefCount: 1
    m_Data: {fileID: 21300000, guid: 65e61b7ee608eaa439ea64b74269628e, type: 3}
  - m_RefCount: 1
    m_Data: {fileID: 21300000, guid: 1c601f2a5d3b8114aa61a6280e0851c4, type: 3}
  - m_RefCount: 1
    m_Data: {fileID: 21300000, guid: c6dacfa37a213e04aae4aa9a450bada4, type: 3}
  - m_RefCount: 1
    m_Data: {fileID: 21300000, guid: 128a468f7b8f15244999b08d21414adb, type: 3}
  - m_RefCount: 1
    m_Data: {fileID: 21300000, guid: d3b49feac1cb2074aa37c15aa173345f, type: 3}
  - m_RefCount: 1
    m_Data: {fileID: 21300000, guid: 71a4515017ec5624aa18720a56d8ecef, type: 3}
  - m_RefCount: 1
    m_Data: {fileID: 21300000, guid: a4d57402d78663044ba6e2adea07054d, type: 3}
  - m_RefCount: 1
    m_Data: {fileID: 21300000, guid: bdbce60167ff1a845821a26c196450cd, type: 3}
  - m_RefCount: 1
    m_Data: {fileID: 21300000, guid: d5788f206f787a94c9056c874cfc7430, type: 3}
  - m_RefCount: 1
    m_Data: {fileID: 21300000, guid: 08c52e47c2993074fab76aefb28795f9, type: 3}
  - m_RefCount: 1
    m_Data: {fileID: 21300000, guid: 0180919f1bc596d4ab968ce594d2007f, type: 3}
  m_TileMatrixArray:
  - m_RefCount: 16
    m_Data:
      e00: 1
      e01: 0
      e02: 0
      e03: 0
      e10: 0
      e11: 1
      e12: 0
      e13: 0
      e20: 0
      e21: 0
      e22: 1
      e23: 0
      e30: 0
      e31: 0
      e32: 0
      e33: 1
  m_TileColorArray:
  - m_RefCount: 16
    m_Data: {r: 1, g: 1, b: 1, a: 1}
  m_AnimationFrameRate: 1
  m_Color: {r: 1, g: 1, b: 1, a: 1}
  m_Origin: {x: -2, y: -3, z: 0}
  m_Size: {x: 6, y: 5, z: 1}
  m_TileAnchor: {x: 0.5, y: 0.5, z: 0}
  m_TileOrientation: 0
  m_TileOrientationMatrix:
    e00: 1
    e01: 0
    e02: 0
    e03: 0
    e10: 0
    e11: 1
    e12: 0
    e13: 0
    e20: 0
    e21: 0
    e22: 1
    e23: 0
    e30: 0
    e31: 0
    e32: 0
    e33: 1
--- !u!483693784 &2756393929256629148
TilemapRenderer:
  m_ObjectHideFlags: 0
  m_CorrespondingSourceObject: {fileID: 0}
  m_PrefabInstance: {fileID: 0}
  m_PrefabAsset: {fileID: 0}
  m_GameObject: {fileID: 1727214704354507159}
  m_Enabled: 0
  m_CastShadows: 0
  m_ReceiveShadows: 0
  m_DynamicOccludee: 0
  m_MotionVectors: 1
  m_LightProbeUsage: 0
  m_ReflectionProbeUsage: 0
  m_RenderingLayerMask: 1
  m_RendererPriority: 0
  m_Materials:
  - {fileID: 10754, guid: 0000000000000000f000000000000000, type: 0}
  m_StaticBatchInfo:
    firstSubMesh: 0
    subMeshCount: 0
  m_StaticBatchRoot: {fileID: 0}
  m_ProbeAnchor: {fileID: 0}
  m_LightProbeVolumeOverride: {fileID: 0}
  m_ScaleInLightmap: 1
  m_ReceiveGI: 1
  m_PreserveUVs: 0
  m_IgnoreNormalsForChartDetection: 0
  m_ImportantGI: 0
  m_StitchLightmapSeams: 1
  m_SelectedEditorRenderState: 0
  m_MinimumChartSize: 4
  m_AutoUVMaxDistance: 0.5
  m_AutoUVMaxAngle: 89
  m_LightmapParameters: {fileID: 0}
  m_SortingLayerID: 0
  m_SortingLayer: 0
  m_SortingOrder: 0
  m_ChunkSize: {x: 32, y: 32, z: 32}
  m_ChunkCullingBounds: {x: 0, y: 0, z: 0}
  m_MaxChunkCount: 16
  m_MaxFrameAge: 16
  m_SortOrder: 0
  m_Mode: 0
  m_DetectChunkCullingBounds: 0
  m_MaskInteraction: 0
--- !u!114 &2940794779227697242
MonoBehaviour:
  m_ObjectHideFlags: 0
  m_CorrespondingSourceObject: {fileID: 0}
  m_PrefabInstance: {fileID: 0}
  m_PrefabAsset: {fileID: 0}
  m_GameObject: {fileID: 0}
  m_Enabled: 1
  m_EditorHideFlags: 0
  m_Script: {fileID: 12395, guid: 0000000000000000e000000000000000, type: 0}
  m_Name: Palette Settings
  m_EditorClassIdentifier: 
  cellSizing: 0
